Data import and tidying
…
# Prologue

---

# What are our concentrations?

Take a guess: what's the most common concentration among classmates?

--

```
## # A tibble: 42 × 2
##    program concentration                      
##    <chr>   <chr>                              
##  1 MPS     Business of Food                   
##  2 MPS     Bhavioral Finance                  
##  3 BS      Finance                            
##  4 BS      EERE                               
##  5 BS      Finance                            
##  6 MPS     Technology Management              
##  7 MPS     Behavioral Finance                 
##  8 MPS     Behaviorla finance                 
##  9 BS      Business Analytics                 
## 10 BS      International Trade and Development
## # … with 32 more rows
```
…
```
## [1] "iris"     "mtcars"   "chickwts" "quakes"
```

---

# Importing excel data

```r
read_excel("data/readxl/datasets.xlsx", sheet = "mtcars")
```

```
## # A tibble: 32 × 11
##      mpg   cyl  disp    hp  drat    wt  qsec    vs    am  gear  carb
##    <dbl> <dbl> <dbl> <dbl> <dbl> <dbl> <dbl> <dbl> <dbl> <dbl> <dbl>
##  1  21       6  160    110  3.9   2.62  16.5     0     1     4     4
##  2  21       6  160    110  3.9   2.88  17.0     0     1     4     4
##  3  22.8     4  108     93  3.85  2.32  18.6     1     1     4     1
##  4  21.4     6  258    110  3.08  3.22  19.4     1     0     3     1
##  5  18.7     8  360    175  3.15  3.44  17.0     0     0     3     2
##  6  18.1     6  225    105  2.76  3.46  20.2     1     0     3     1
##  7  14.3     8  360    245  3.21  3.57  15.8     0     0     3     4
##  8  24.4     4  147.    62  3.69  3.19  20       1     0     4     2
##  9  22.8     4  141.    95  3.92  3.15  22.9     1     0     4     2
## 10  19.2     6  168.   123  3.92  3.44  18.3     1     0     4     4
## # … with 22 more rows
```
…
.pull-right[

```r
table3
#> # A tibble: 8 × 4
#>   country      year type           count
#>   <chr>       <dbl> <chr>          <dbl>
#> 1 Afghanistan  1999 cases            745
#> 2 Afghanistan  1999 population  19987071
#> 3 Afghanistan  2000 cases           2666
#> 4 Afghanistan  2000 population  20595360
#> 5 Brazil       1999 cases          37737
#> 6 Brazil       1999 population 172006362
#> # … with 2 more rows
```
…
