Joins and logic
…
Or, we can specify what to join by: `*_join(..., by = join_by(publisher))`

.small[Note: before `dplyr` 1.1.0, the syntax was: `*_join(..., by = "publisher")`]

---

# Exploring keys

``` r
library(nycflights13) # let's explore keys using the nycflights13 data
flights |> print(n = 8) # print the first 8 rows of flights
```

```
## # A tibble: 336,776 × 19
##    year month   day dep_time sched_dep_time dep_delay arr_time sched_arr_time
##   <int> <int> <int>    <int>          <int>     <dbl>    <int>          <int>
## 1  2013     1     1      517            515         2      830            819
## 2  2013     1     1      533            529         4      850            830
## 3  2013     1     1      542            540         2      923            850
## 4  2013     1     1      544            545        -1     1004           1022
## 5  2013     1     1      554            600        -6      812            837
## 6  2013     1     1      554            558        -4      740            728
## 7  2013     1     1      555            600        -5      913            854
## 8  2013     1     1      557            600        -3      709            723
## # ℹ 336,768 more rows
## # ℹ 11 more variables: arr_delay <dbl>, carrier <chr>, flight <int>,
## #   tailnum <chr>, origin <chr>, dest <chr>, air_time <dbl>, distance <dbl>,
## #   hour <dbl>, minute <dbl>, time_hour <dttm>
```

---

# Exploring keys

``` r
planes # print the first 10 rows of planes
```

```
## # A tibble: 3,322 × 9
##    tailnum  year type              manufacturer model engines seats speed engine
##    <chr>   <int> <chr>             <chr>        <chr>   <int> <int> <int> <chr> 
##  1 N10156   2004 Fixed wing multi… EMBRAER      EMB-…       2    55    NA Turbo…
##  2 N102UW   1998 Fixed wing multi… AIRBUS INDU… A320…       2   182    NA Turbo…
##  3 N103US   1999 Fixed wing multi… AIRBUS INDU… A320…       2   182    NA Turbo…
##  4 N104UW   1999 Fixed wing multi… AIRBUS INDU… A320…       2   182    NA Turbo…
##  5 N10575   2002 Fixed wing multi… EMBRAER      EMB-…       2    55    NA Turbo…
##  6 N105UW   1999 Fixed wing multi… AIRBUS INDU… A320…       2   182    NA Turbo…
##  7 N107US   1999 Fixed wing multi… AIRBUS INDU… A320…       2   182    NA Turbo…
##  8 N108UW   1999 Fixed wing multi… AIRBUS INDU… A320…       2   182    NA Turbo…
##  9 N109UW   1999 Fixed wing multi… AIRBUS INDU… A320…       2   182    NA Turbo…
## 10 N110UW   1999 Fixed wing multi… AIRBUS INDU… A320…       2   182    NA Turbo…
## # ℹ 3,312 more rows
```
…
# Let's perform a left join on flights and planes

``` r
*left_join(flights, planes) |>
  select(year:dep_time, arr_time, carrier:tailnum, type, model) |> # keep text to one slide
  print(n = 5) # just to save vertical space on the slide
```

```
## Joining with `by = join_by(year, tailnum)`
```

```
## # A tibble: 336,776 × 10
##    year month   day dep_time arr_time carrier flight tailnum type  model
##   <int> <int> <int>    <int>    <int> <chr>    <int> <chr>   <chr> <chr>
## 1  2013     1     1      517      830 UA        1545 N14228  <NA>  <NA> 
## 2  2013     1     1      533      850 UA        1714 N24211  <NA>  <NA> 
## 3  2013     1     1      542      923 AA        1141 N619AA  <NA>  <NA> 
## 4  2013     1     1      544     1004 B6         725 N804JB  <NA>  <NA> 
## 5  2013     1     1      554      812 DL         461 N668DN  <NA>  <NA> 
## # ℹ 336,771 more rows
```
…
# Specifying join keys

We just need to be explicit in the join call by using the `by` argument

``` r
left_join(flights,
          planes |> rename(year_built = year), # not necessary w/ below line, but helpful
*         by = join_by(tailnum) # be specific about the joining column
          ) |>
  select(year, month:dep_time, carrier, flight, tailnum, year_built, type, model) |>
  print(n = 5) # just to save vertical space on the slide
```

```
## # A tibble: 336,776 × 10
##    year month   day dep_time carrier flight tailnum year_built type        model
##   <int> <int> <int>    <int> <chr>    <int> <chr>        <int> <chr>       <chr>
## 1  2013     1     1      517 UA        1545 N14228        1999 Fixed wing… 737-…
## 2  2013     1     1      533 UA        1714 N24211        1998 Fixed wing… 737-…
## 3  2013     1     1      542 AA        1141 N619AA        1990 Fixed wing… 757-…
## 4  2013     1     1      544 B6         725 N804JB        2012 Fixed wing… A320…
## 5  2013     1     1      554 DL         461 N668DN        1991 Fixed wing… 757-…
## # ℹ 336,771 more rows
```
…
# Specifying join keys

What happens if we don't rename `year` before this join?

``` r
left_join(flights,
*         planes, # not renaming "year" to "year_built" this time
          by = join_by(tailnum)
          ) |>
  select(contains("year"), month:dep_time, arr_time, carrier, flight, tailnum, type, model) |>
  print(n = 4) # just to save vertical space on the slide
```

```
## # A tibble: 336,776 × 11
##   year.x year.y month   day dep_time arr_time carrier flight tailnum type  model
##    <int>  <int> <int> <int>    <int>    <int> <chr>    <int> <chr>   <chr> <chr>
## 1   2013   1999     1     1      517      830 UA        1545 N14228  Fixe… 737-…
## 2   2013   1998     1     1      533      850 UA        1714 N24211  Fixe… 737-…
## 3   2013   1990     1     1      542      923 AA        1141 N619AA  Fixe… 757-…
## 4   2013   2012     1     1      544     1004 B6         725 N804JB  Fixe… A320…
## # ℹ 336,772 more rows
```
…
---

# Transient logical vectors

We create a transient logical vector when we filter `flights` to Miami:

``` r
library(nycflights13)
flights |> 
  select(carrier, flight, dest) |> 
  filter(dest == "MIA")
```

```
## # A tibble: 11,728 × 3
##    carrier flight dest 
##    <chr>    <int> <chr>
##  1 AA        1141 MIA  
##  2 AA        1895 MIA  
##  3 UA        1077 MIA  
##  4 AA        1837 MIA  
##  5 DL        2003 MIA  
##  6 AA        2279 MIA  
##  7 AA        2267 MIA  
##  8 DL        1843 MIA  
##  9 AA         443 MIA  
## 10 DL        2143 MIA  
## # ℹ 11,718 more rows
```
…
<!-- # What goes on under the hood of a filter -->

# `filter(dest == "MIA")`: under the hood

.pull-left[

``` r
# create a logical vector from a comparison
flights |> 
  select(carrier, flight, dest) |> 
* mutate(welcome_to_miami = dest == "MIA")
```

```
## # A tibble: 336,776 × 4
##    carrier flight dest  welcome_to_miami
##    <chr>    <int> <chr> <lgl>           
##  1 UA        1545 IAH   FALSE           
##  2 UA        1714 IAH   FALSE           
*##  3 AA        1141 MIA   TRUE            
##  4 B6         725 BQN   FALSE           
##  5 DL         461 ATL   FALSE           
##  6 UA        1696 ORD   FALSE           
##  7 B6         507 FLL   FALSE           
##  8 EV        5708 IAD   FALSE           
##  9 B6          79 MCO   FALSE           
## 10 AA         301 ORD   FALSE           
## # ℹ 336,766 more rows
```
]

--

.pull-right[

``` r
flights |> 
  select(carrier, flight, dest) |> 
  mutate(welcome_to_miami = dest == "MIA") |> 
* filter(welcome_to_miami) # then filter
```

```
## # A tibble: 11,728 × 4
##    carrier flight dest  welcome_to_miami
##    <chr>    <int> <chr> <lgl>           
*##  1 AA        1141 MIA   TRUE            
##  2 AA        1895 MIA   TRUE            
##  3 UA        1077 MIA   TRUE            
##  4 AA        1837 MIA   TRUE            
##  5 DL        2003 MIA   TRUE            
##  6 AA        2279 MIA   TRUE            
##  7 AA        2267 MIA   TRUE            
##  8 DL        1843 MIA   TRUE            
##  9 AA         443 MIA   TRUE            
## 10 DL        2143 MIA   TRUE            
## # ℹ 11,718 more rows
```
…
---

# Boolean operator examples

.pull-left[

``` r
flights |> 
  select(carrier, flight, dest) |> 
* filter(dest == "MIA" | dest == "MYR")
```

```
## # A tibble: 11,787 × 3
##    carrier flight dest 
##    <chr>    <int> <chr>
##  1 AA        1141 MIA  
##  2 AA        1895 MIA  
##  3 UA        1077 MIA  
##  4 AA        1837 MIA  
##  5 DL        2003 MIA  
##  6 AA        2279 MIA  
##  7 AA        2267 MIA  
##  8 DL        1843 MIA  
##  9 AA         443 MIA  
## 10 EV        4412 MYR  
## # ℹ 11,777 more rows
```
]

.pull-right[

``` r
flights |> 
  select(carrier, flight, dest) |> 
* filter(carrier == "AA" & dest == "MIA")
```

```
## # A tibble: 7,234 × 3
##    carrier flight dest 
##    <chr>    <int> <chr>
##  1 AA        1141 MIA  
##  2 AA        1895 MIA  
##  3 AA        1837 MIA  
##  4 AA        2279 MIA  
##  5 AA        2267 MIA  
##  6 AA         443 MIA  
##  7 AA         647 MIA  
##  8 AA        2099 MIA  
##  9 AA        1623 MIA  
## 10 AA        2253 MIA  
## # ℹ 7,224 more rows
```
…
---

# %in%

`x %in% y` is a useful tool for identifying whether a value in `x` is contained in `y`

``` r
flights |> 
  select(carrier, flight, dest) |> 
* filter(dest %in% c("MIA", "MYR"))
```

```
## # A tibble: 11,787 × 3
##    carrier flight dest 
##    <chr>    <int> <chr>
##  1 AA        1141 MIA  
##  2 AA        1895 MIA  
##  3 UA        1077 MIA  
##  4 AA        1837 MIA  
##  5 DL        2003 MIA  
##  6 AA        2279 MIA  
##  7 AA        2267 MIA  
##  8 DL        1843 MIA  
##  9 AA         443 MIA  
## 10 EV        4412 MYR  
## # ℹ 11,777 more rows
```
…
---
name: conditionals

# Conditional transformations

`if_else()` can be used to do things based on a binary condition

``` r
flights |> filter(dest == "MIA") |> 
    select(carrier, flight, dest, sched_dep_time) |> 
*   mutate(too_early = if_else(sched_dep_time < 800, "too early!", "okay"))
```

```
## # A tibble: 11,728 × 5
##    carrier flight dest  sched_dep_time too_early 
##    <chr>    <int> <chr>          <int> <chr>     
##  1 AA        1141 MIA              540 too early!
##  2 AA        1895 MIA              610 too early!
##  3 UA        1077 MIA              607 too early!
##  4 AA        1837 MIA              610 too early!
##  5 DL        2003 MIA              700 too early!
##  6 AA        2279 MIA              700 too early!
##  7 AA        2267 MIA              755 too early!
##  8 DL        1843 MIA              800 okay      
##  9 AA         443 MIA              715 too early!
## 10 DL        2143 MIA              900 okay      
## # ℹ 11,718 more rows
```
…
.pull-right[

```
## # A tibble: 11,728 × 4
##    carrier flight sched_dep_time too_early  
##    <chr>    <int>          <int> <chr>      
##  1 AA        1141            540 too early! 
##  2 AA        1895            610 still early
##  3 UA        1077            607 still early
##  4 AA        1837            610 still early
##  5 DL        2003            700 still early
##  6 AA        2279            700 still early
##  7 AA        2267            755 still early
##  8 DL        1843            800 okay       
##  9 AA         443            715 still early
## 10 DL        2143            900 okay       
## # ℹ 11,718 more rows
```
…
