Strings and regular expressions
…
# Working with strings in R

---

# Strings are nothing new

.pull-left[

``` r
flights |>
  select(carrier, tailnum, origin, dest)
```

```
## # A tibble: 336,776 × 4
##    carrier tailnum origin dest 
*##    <chr>   <chr>   <chr>  <chr>
##  1 UA      N14228  EWR    IAH  
##  2 UA      N24211  LGA    IAH  
##  3 AA      N619AA  JFK    MIA  
##  4 B6      N804JB  JFK    BQN  
##  5 DL      N668DN  LGA    ATL  
##  6 UA      N39463  EWR    ORD  
##  7 B6      N516JB  EWR    FLL  
##  8 EV      N829AS  LGA    IAD  
##  9 B6      N593JB  JFK    MCO  
## 10 AA      N3ALAA  LGA    ORD  
## # ℹ 336,766 more rows
```
]

.pull-right[

``` r
read_csv("homework-1-survey.csv") |> 
  select(Concentration)
```

```
## # A tibble: 84 × 1
##    Concentration                
*##    <chr>                        
##  1 Economic Policy              
##  2 Business analytics           
##  3 Economic and Financial Policy
##  4 Public policy                
##  5 Minor in Data Science        
##  6 Finance                      
##  7 Finance                      
##  8 SBEE                         
##  9 Accounting                   
## 10 Business                     
## # ℹ 74 more rows
```
…
See `vignette("stringr")` for more

---

# We'll use data from The Office

The `schrute` package contains transcripts of all episodes of [The Office](https://www.imdb.com/title/tt0386676/) (US)

``` r
library(schrute)
theoffice # this data frame is an object from the schrute package
```

```
## # A tibble: 55,130 × 12
##    index season episode episode_name director   writer           character text 
##    <int>  <int>   <int> <chr>        <chr>      <chr>            <chr>     <chr>
##  1     1      1       1 Pilot        Ken Kwapis Ricky Gervais;S… Michael   All …
##  2     2      1       1 Pilot        Ken Kwapis Ricky Gervais;S… Jim       Oh, …
##  3     3      1       1 Pilot        Ken Kwapis Ricky Gervais;S… Michael   So y…
##  4     4      1       1 Pilot        Ken Kwapis Ricky Gervais;S… Jim       Actu…
##  5     5      1       1 Pilot        Ken Kwapis Ricky Gervais;S… Michael   All …
##  6     6      1       1 Pilot        Ken Kwapis Ricky Gervais;S… Michael   Yes,…
##  7     7      1       1 Pilot        Ken Kwapis Ricky Gervais;S… Michael   I've…
##  8     8      1       1 Pilot        Ken Kwapis Ricky Gervais;S… Pam       Well…
##  9     9      1       1 Pilot        Ken Kwapis Ricky Gervais;S… Michael   If y…
## 10    10      1       1 Pilot        Ken Kwapis Ricky Gervais;S… Pam       What?
## # ℹ 55,120 more rows
## # ℹ 4 more variables: text_w_direction <chr>, imdb_rating <dbl>,
## #   total_votes <int>, air_date <chr>
```
…
# 4) str_detect()

`str_detect` is a powerful way to `filter` a data frame

--

``` r
theoffice |> select(season, episode, character, text) |> 
* filter(str_detect(text,    # where to match a pattern
*                   "sale")) # what pattern to match
```

```
## # A tibble: 370 × 4
##    season episode character text                                                
##     <int>   <int> <chr>     <chr>                                               
##  1      1       2 Jim       This is my biggest sale of the year. They love me o…
##  2      1       2 Jim       Mr. Decker, we didn't lose your sale today, did we?…
##  3      1       3 Jim       That is a great offer. Thank you. I really think I …
##  4      1       3 Jan       From sales?                                         
##  5      1       4 Michael   Look, look, look. I talked to corporate, about prot…
##  6      1       5 Michael   All right, time, time out. Come on, sales, over her…
##  7      1       6 Jan       Alan and I have created an incentive program to inc…
##  8      1       6 Jan       We've created an incentive program to increase sale…
##  9      1       6 Jim       Plus you have so much more to talk to this girl abo…
## 10      1       6 Stanley   I thought that was the incentive prize for the top …
## # ℹ 360 more rows
```

---

# 4) str_detect()

Literal pattern matches with `str_detect` are case-sensitive

``` r
theoffice |> select(season, episode, character, text) |> 
  filter(str_detect(text, 
*                   "Sale")) # sale and Sale produce different output
```

```
## # A tibble: 28 × 4
##    season episode character          text                                       
##     <int>   <int> <chr>              <chr>                                      
##  1      2      11 Michael            No, no. Salesmen and profit centers.       
##  2      2      14 Michael            Old fashioned raid. Sales on Accounting. Y…
##  3      2      14 Michael and Dwight Ahhhh! Whoo hoo! Come on, come on, come on…
##  4      2      14 Michael            Oh, and I'm not? Why would you say that? B…
##  5      2      17 Jim                Dwight was the top salesman of the year at…
##  6      2      17 Michael            Speaker at the Sales Convention. Been ther…
##  7      2      17 Dwight             Saleswoman has a v*g1n*.                   
##  8      2      17 Speaker            Next, I'd like to introduce the Dunder Mif…
##  9      2      17 Dwight             Salesman of Northeastern Pennsylvania, I a…
## 10      3       5 Angela             Sales take a long time.                    
## # ℹ 18 more rows
```

---

# 4) str_detect()

You could use multiple calls to `str_detect`, or use alternation:

``` r
theoffice |> select(season, episode, character, text) |> 
  filter(str_detect(text, 
*                   "sale|Sale")) # look for sale OR Sale
```

```
## # A tibble: 392 × 4
##    season episode character text                                                
##     <int>   <int> <chr>     <chr>                                               
##  1      1       2 Jim       This is my biggest sale of the year. They love me o…
##  2      1       2 Jim       Mr. Decker, we didn't lose your sale today, did we?…
##  3      1       3 Jim       That is a great offer. Thank you. I really think I …
##  4      1       3 Jan       From sales?                                         
##  5      1       4 Michael   Look, look, look. I talked to corporate, about prot…
##  6      1       5 Michael   All right, time, time out. Come on, sales, over her…
##  7      1       6 Jan       Alan and I have created an incentive program to inc…
##  8      1       6 Jan       We've created an incentive program to increase sale…
##  9      1       6 Jim       Plus you have so much more to talk to this girl abo…
## 10      1       6 Stanley   I thought that was the incentive prize for the top …
## # ℹ 382 more rows
```

---

# 4) str_detect()

You could consolidate this: regex parentheses are like in math

``` r
theoffice |> select(season, episode, character, text) |> 
  filter(str_detect(text, 
*                   "(s|S)ale")) # look for sale OR Sale
```

```
## # A tibble: 392 × 4
##    season episode character text                                                
##     <int>   <int> <chr>     <chr>                                               
##  1      1       2 Jim       This is my biggest sale of the year. They love me o…
##  2      1       2 Jim       Mr. Decker, we didn't lose your sale today, did we?…
##  3      1       3 Jim       That is a great offer. Thank you. I really think I …
##  4      1       3 Jan       From sales?                                         
##  5      1       4 Michael   Look, look, look. I talked to corporate, about prot…
##  6      1       5 Michael   All right, time, time out. Come on, sales, over her…
##  7      1       6 Jan       Alan and I have created an incentive program to inc…
##  8      1       6 Jan       We've created an incentive program to increase sale…
##  9      1       6 Jim       Plus you have so much more to talk to this girl abo…
## 10      1       6 Stanley   I thought that was the incentive prize for the top …
## # ℹ 382 more rows
```

---

# 4) str_detect()

Or use `regex` to ignore all cases and control other pattern matching details

``` r
theoffice |> select(season, episode, character, text) |> 
  filter(str_detect(text, 
*                   regex("sale", ignore_case = TRUE))) # ignore all cases
```

```
*## # A tibble: 393 × 4
##    season episode character text                                                
##     <int>   <int> <chr>     <chr>                                               
##  1      1       2 Jim       This is my biggest sale of the year. They love me o…
##  2      1       2 Jim       Mr. Decker, we didn't lose your sale today, did we?…
##  3      1       3 Jim       That is a great offer. Thank you. I really think I …
##  4      1       3 Jan       From sales?                                         
##  5      1       4 Michael   Look, look, look. I talked to corporate, about prot…
##  6      1       5 Michael   All right, time, time out. Come on, sales, over her…
##  7      1       6 Jan       Alan and I have created an incentive program to inc…
##  8      1       6 Jan       We've created an incentive program to increase sale…
##  9      1       6 Jim       Plus you have so much more to talk to this girl abo…
## 10      1       6 Stanley   I thought that was the incentive prize for the top …
## # ℹ 383 more rows
```
…
# 4) str_detect()

`str_detect` can be combined with familiar functions to summarize data

--

``` r
theoffice |> 
  filter(str_detect(text, regex("sale", ignore_case = TRUE))) |> 
* count(character, sort = TRUE)
```

```
## # A tibble: 46 × 2
##    character     n
##    <chr>     <int>
##  1 Michael      91
##  2 Dwight       81
##  3 Jim          51
##  4 Andy         31
##  5 Pam          26
##  6 Ryan         10
##  7 Clark         8
##  8 Gabe          7
##  9 David         6
## 10 Angela        5
## # ℹ 36 more rows
```
…
