Time
…
→ & ↓

---

# Visualizing amounts over time using ggplot

Let's use GameStop share prices to make some plots:

```r
gme_prices
```

```
## # A tibble: 5,060 × 8
##    symbol date        open  high   low close   volume adjusted
##    <chr>  <date>     <dbl> <dbl> <dbl> <dbl>    <dbl>    <dbl>
##  1 GME    2002-02-13  9.62 10.1   9.52 10.0  19054000     6.77
##  2 GME    2002-02-14 10.2  10.2   9.93 10     2755400     6.73
##  3 GME    2002-02-15 10    10.0   9.85  9.95  2097400     6.70
##  4 GME    2002-02-19  9.9   9.9   9.38  9.55  1852600     6.43
##  5 GME    2002-02-20  9.6   9.88  9.52  9.88  1723200     6.65
##  6 GME    2002-02-21  9.84  9.93  9.75  9.85  1744200     6.63
##  7 GME    2002-02-22  9.93  9.93  9.6   9.68   881400     6.51
##  8 GME    2002-02-25  9.65  9.82  9.54  9.75   863400     6.56
##  9 GME    2002-02-26  9.7   9.85  9.54  9.75   690400     6.56
## 10 GME    2002-02-27  9.68  9.68  9.5   9.57  1022800     6.45
## # ℹ 5,050 more rows
```
…
