Relationships
…
# Marginal effects plots

.small-code[

```r
cars_new_data <- tibble(displ = seq(2, 7, by = 0.1),  # create grid for displ
                        cyl = mean(mpg$cyl),          # hold cylinders at its mean
                        drv = "f")                    # drive: front-wheel

cars_new_data
```

```
## # A tibble: 51 × 3
##    displ   cyl drv  
##    <dbl> <dbl> <chr>
##  1   2    5.89 f    
##  2   2.1  5.89 f    
##  3   2.2  5.89 f    
##  4   2.3  5.89 f    
##  5   2.4  5.89 f    
##  6   2.5  5.89 f    
##  7   2.6  5.89 f    
##  8   2.7  5.89 f    
##  9   2.8  5.89 f    
## 10   2.9  5.89 f    
## # … with 41 more rows
```
…
---

# Multiple effects at once

```r
cars_new_data_fancy <- expand_grid(displ = seq(2, 7, by = 0.1),  # create grid for displ
                                   cyl = mean(mpg$cyl),          # hold cylinders at its mean
                                   drv = c("f", "r", "4"))       # drive: front-wheel
                                   
cars_new_data_fancy
```

```
## # A tibble: 153 × 3
##    displ   cyl drv  
##    <dbl> <dbl> <chr>
##  1   2    5.89 f    
##  2   2    5.89 r    
##  3   2    5.89 4    
##  4   2.1  5.89 f    
##  5   2.1  5.89 r    
##  6   2.1  5.89 4    
##  7   2.2  5.89 f    
##  8   2.2  5.89 r    
##  9   2.2  5.89 4    
## 10   2.3  5.89 f    
## # … with 143 more rows
```
…
