Text
…
# Prologue

---

# Text comes in many forms

The `schrute` package contains transcripts of all episodes of [The Office](https://www.imdb.com/title/tt0386676/) (US)

```r
theoffice # this is an object from the schrute package
```

```
## # A tibble: 55,130 × 12
##    index season episode episode_name director   writer    character text  text_w_direction
##    <int>  <int>   <int> <chr>        <chr>      <chr>     <chr>     <chr> <chr>           
##  1     1      1       1 Pilot        Ken Kwapis Ricky Ge… Michael   All … All right Jim. …
##  2     2      1       1 Pilot        Ken Kwapis Ricky Ge… Jim       Oh, … Oh, I told you.…
##  3     3      1       1 Pilot        Ken Kwapis Ricky Ge… Michael   So y… So you've come …
##  4     4      1       1 Pilot        Ken Kwapis Ricky Ge… Jim       Actu… Actually, you c…
##  5     5      1       1 Pilot        Ken Kwapis Ricky Ge… Michael   All … All right. Well…
##  6     6      1       1 Pilot        Ken Kwapis Ricky Ge… Michael   Yes,… [on the phone] …
##  7     7      1       1 Pilot        Ken Kwapis Ricky Ge… Michael   I've… I've, uh, I've …
##  8     8      1       1 Pilot        Ken Kwapis Ricky Ge… Pam       Well… Well. I don't k…
##  9     9      1       1 Pilot        Ken Kwapis Ricky Ge… Michael   If y… If you think sh…
## 10    10      1       1 Pilot        Ken Kwapis Ricky Ge… Pam       What? What?           
## # … with 55,120 more rows, and 3 more variables: imdb_rating <dbl>, total_votes <int>,
## #   air_date <fct>
```
…
# Working with strings in R

---

# Strings are nothing new

.pull-left[

```r
nycflights13::flights %>% 
  select(carrier, tailnum, origin, dest)
```

```
## # A tibble: 336,776 × 4
##    carrier tailnum origin dest 
*##    <chr>   <chr>   <chr>  <chr>
##  1 UA      N14228  EWR    IAH  
##  2 UA      N24211  LGA    IAH  
##  3 AA      N619AA  JFK    MIA  
##  4 B6      N804JB  JFK    BQN  
##  5 DL      N668DN  LGA    ATL  
##  6 UA      N39463  EWR    ORD  
##  7 B6      N516JB  EWR    FLL  
##  8 EV      N829AS  LGA    IAD  
##  9 B6      N593JB  JFK    MCO  
## 10 AA      N3ALAA  LGA    ORD  
## # … with 336,766 more rows
```
]

.pull-right[

```r
read_csv("data/our-companies.csv") %>% 
  select(name)
```

```
## # A tibble: 22 × 1
##    name                           
*##    <chr>                          
##  1 Allbirds Inc                   
##  2 Alphabet Inc. Class A          
##  3 Anheuser Busch Inbev SA        
##  4 Apple Inc.                     
##  5 Berkshire Hathaway Inc. Class B
##  6 Bumble Inc                     
##  7 Capri Holdings Ltd             
##  8 Costco Wholesale Corporation   
##  9 Electronic Arts Inc.           
## 10 Levi Strauss & Co.             
## # … with 12 more rows
```
…
---

# 3) stringr::str_detect

`str_detect` can be used to match patterns

```r
theoffice %>% select(season, episode, character, text) %>% 
* filter(str_detect(text,    # where to match a pattern
*                   "sale")) # what pattern to match
```

```
## # A tibble: 369 × 4
##    season episode character text                                                          
##     <int>   <int> <chr>     <chr>                                                         
##  1      1       2 Jim       This is my biggest sale of the year. They love me over there …
##  2      1       2 Jim       Mr. Decker, we didn't lose your sale today, did we? Excellent…
##  3      1       3 Jim       That is a great offer. Thank you. I really think I should be …
##  4      1       3 Jan       From sales?                                                   
##  5      1       4 Michael   Look, look, look. I talked to corporate, about protecting the…
##  6      1       5 Michael   All right, time, time out. Come on, sales, over here. Bring i…
##  7      1       6 Jan       Alan and I have created an incentive program to increase sale…
##  8      1       6 Jan       We've created an incentive program to increase sales.         
##  9      1       6 Jim       Plus you have so much more to talk to this girl about, You're…
## 10      1       6 Stanley   I thought that was the incentive prize for the top salesperso…
## # … with 359 more rows
```

---

# 3) stringr::str_detect

`str_detect` is case-sensitive

```r
theoffice %>% select(season, episode, character, text) %>% 
  filter(str_detect(text, 
*                   "Sale")) # sale and Sale produce different output
```

```
## # A tibble: 28 × 4
##    season episode character          text                                                 
##     <int>   <int> <chr>              <chr>                                                
##  1      2      11 Michael            No, no. Salesmen and profit centers.                 
##  2      2      14 Michael            Old fashioned raid. Sales on Accounting. Yeah. Follo…
##  3      2      14 Michael and Dwight Ahhhh! Whoo hoo! Come on, come on, come on, come on!…
##  4      2      14 Michael            Oh, and I'm not? Why would you say that? Because I'm…
##  5      2      17 Jim                Dwight was the top salesman of the year at our compa…
##  6      2      17 Michael            Speaker at the Sales Convention. Been there, done th…
##  7      2      17 Dwight             Saleswoman has a v*g1n*.                             
##  8      2      17 Speaker            Next, I'd like to introduce the Dunder Mifflin Sales…
##  9      2      17 Dwight             Salesman of Northeastern Pennsylvania, I ask you onc…
## 10      3       5 Angela             Sales take a long time.                              
## # … with 18 more rows
```

---

# 3) stringr::str_detect

Use `regex` to ignore case and control other details of pattern matching:

```r
theoffice %>% select(season, episode, character, text) %>% 
  filter(str_detect(text, 
*                   regex("Sale", ignore_case = TRUE)))
```

```
## # A tibble: 392 × 4
##    season episode character text                                                          
##     <int>   <int> <chr>     <chr>                                                         
##  1      1       2 Jim       This is my biggest sale of the year. They love me over there …
##  2      1       2 Jim       Mr. Decker, we didn't lose your sale today, did we? Excellent…
##  3      1       3 Jim       That is a great offer. Thank you. I really think I should be …
##  4      1       3 Jan       From sales?                                                   
##  5      1       4 Michael   Look, look, look. I talked to corporate, about protecting the…
##  6      1       5 Michael   All right, time, time out. Come on, sales, over here. Bring i…
##  7      1       6 Jan       Alan and I have created an incentive program to increase sale…
##  8      1       6 Jan       We've created an incentive program to increase sales.         
##  9      1       6 Jim       Plus you have so much more to talk to this girl about, You're…
## 10      1       6 Stanley   I thought that was the incentive prize for the top salesperso…
## # … with 382 more rows
```

---

# 3) stringr::str_detect

`str_detect` can be combined with other functions to summarize data

```r
theoffice %>% 
  filter(str_detect(text, regex("Sale", ignore_case = TRUE))) %>% 
* count(character, sort = TRUE)
```

```
## # A tibble: 46 × 2
##    character     n
##    <chr>     <int>
##  1 Michael      91
##  2 Dwight       80
##  3 Jim          51
##  4 Andy         31
##  5 Pam          26
##  6 Ryan         10
##  7 Clark         8
##  8 Gabe          7
##  9 David         6
## 10 Angela        5
## # … with 36 more rows
```
…
--

.pull-right[

```
## # A tibble: 77,875 × 2
##    word    chapter
##    <chr>     <int>
##  1 the           1
##  2 boy           1
##  3 who           1
##  4 lived         1
##  5 mr            1
##  6 and           1
##  7 mrs           1
##  8 dursley       1
##  9 of            1
## 10 number        1
## # … with 77,865 more rows
```
…
```r
hp1_data %>% 
  unnest_tokens(
    input = text, 
    output = word, 
    ) %>%        
* count(word, sort = TRUE)
```
]

.pull-right[

```
## # A tibble: 5,978 × 2
##    word      n
##    <chr> <int>
##  1 the    3629
##  2 and    1923
##  3 to     1861
##  4 a      1691
##  5 he     1528
##  6 of     1267
##  7 harry  1213
##  8 was    1186
##  9 it     1027
## 10 in      968
## # … with 5,968 more rows
```
…
---

# Stop words

We can filter out common **stop words** that we want to ignore

```r
stop_words # this is an object from the tidytext package
```

```
## # A tibble: 1,149 × 2
##    word        lexicon
##    <chr>       <chr>  
##  1 a           SMART  
##  2 a's         SMART  
##  3 able        SMART  
##  4 about       SMART  
##  5 above       SMART  
##  6 according   SMART  
##  7 accordingly SMART  
##  8 across      SMART  
##  9 actually    SMART  
## 10 after       SMART  
## # … with 1,139 more rows
```
…
```r
hp1_data %>% 
  unnest_tokens(
    input = text, 
*   output = bigram,  # new column bigram
*   token = "ngrams", # we want ngrams
*   n = 2) %>%        # we want bigrams
  relocate(bigram)
```
]

.pull-right[

```
## # A tibble: 77,858 × 2
##    bigram      chapter
##    <chr>         <int>
##  1 the boy           1
##  2 boy who           1
##  3 who lived         1
##  4 lived mr          1
##  5 mr and            1
##  6 and mrs           1
##  7 mrs dursley       1
##  8 dursley of        1
##  9 of number         1
## 10 number four       1
## # … with 77,848 more rows
```
…
--

.pull-right[

```
## # A tibble: 2,096 × 3
##    word1 word2  total
##    <chr> <chr>  <int>
##  1 he    was     2490
##  2 he    had     2138
##  3 he    said    1270
##  4 he    could    925
##  5 she   said     615
##  6 she   was      603
##  7 he    looked   428
##  8 he    did      386
##  9 she   had      385
## 10 he    would    349
## # … with 2,086 more rows
```
…
word_ratios
```
]

--

.pull-right[

```
## # A tibble: 262 × 4
##    word2          he     she logratio
##    <chr>       <dbl>   <dbl>    <dbl>
##  1 screamed 0.000171 0.00338     4.30
##  2 shrieked 0.000228 0.00338     3.89
##  3 snapped  0.000399 0.00386     3.27
##  4 replied  0.000228 0.00217     3.25
##  5 barked   0.000228 0.00169     2.89
##  6 cried    0.000628 0.00338     2.43
##  7 sounded  0.000685 0.00290     2.08
##  8 say      0.000456 0.00169     1.89
##  9 checked  0.000342 0.00121     1.82
## 10 jerked   0.000342 0.00121     1.82
## # … with 252 more rows
```
…
# Sentiment analysis

Simple approach: quantify sentiment of each word in a corpus, then sum them up

--

.pull-left-3.small-code[

```r
get_sentiments("bing")
```

```
# A tibble: 6,786 × 2
   word        sentiment
   <chr>       <chr>    
 1 2-faces     negative 
 2 abnormal    negative 
 3 abolish     negative 
 4 abominable  negative 
 5 abominably  negative 
 6 abominate   negative 
 7 abomination negative 
 8 abort       negative 
 9 aborted     negative 
10 aborts      negative 
# … with 6,776 more rows
```
]

--

.pull-middle-3.small-code[

```r
get_sentiments("afinn")
```

```
# A tibble: 2,477 × 2
   word       value
   <chr>      <dbl>
 1 abandon       -2
 2 abandoned     -2
 3 abandons      -2
 4 abducted      -2
 5 abduction     -2
 6 abductions    -2
 7 abhor         -3
 8 abhorred      -3
 9 abhorrent     -3
10 abhors        -3
# … with 2,467 more rows
```
]

--

.pull-right-3.small-code[

```r
get_sentiments("nrc")
```

```
# A tibble: 13,875 × 2
   word        sentiment
   <chr>       <chr>    
 1 abacus      trust    
 2 abandon     fear     
 3 abandon     negative 
 4 abandon     sadness  
 5 abandoned   anger    
 6 abandoned   fear     
 7 abandoned   negative 
 8 abandoned   sadness  
 9 abandonment anger    
10 abandonment fear     
# … with 13,865 more rows
```
…
