Web scraping
…
---

# Scraped data frames are data frames

``` r
tidy_big_red <- big_red_table |> 
  pivot_longer(everything(), names_to = "gender", values_to = "sport") |> 
  filter(sport != "" & !str_detect(sport, "^†")) # remove things that aren't sports

tidy_big_red
```

```
## # A tibble: 35 × 2
##    gender         sport        
##    <chr>          <chr>        
##  1 Men's sports   Baseball     
##  2 Women's sports Basketball   
##  3 Men's sports   Basketball   
##  4 Women's sports Cross country
##  5 Men's sports   Cross country
##  6 Women's sports Equestrian   
##  7 Men's sports   Football     
##  8 Women's sports Fencing      
##  9 Men's sports   Golf         
## 10 Women's sports Field hockey 
## # ℹ 25 more rows
```
…
# Use `.wikitable` tag to get the first table

``` r
rankings <- read_html("https://web.archive.org/web/20220405170508/https://en.wikipedia.org/wiki/College_and_university_rankings_in_the_United_States")

first_table <- rankings |> 
* html_element(".wikitable") |> # extract the first .wikitable
* html_table()                  # convert html to a data frame

first_table
```

```
## # A tibble: 21 × 5
##    Top national universit…¹ `2022 rank` ``    Top liberal arts col…² `2022 rank`
##    <chr>                          <int> <lgl> <chr>                        <int>
##  1 Princeton University               1 NA    Williams College                 1
##  2 Columbia University                2 NA    Amherst College                  2
##  3 Harvard University                 2 NA    Swarthmore College               3
##  4 Massachusetts Institute…           2 NA    Pomona College                   4
##  5 Yale University                    5 NA    Wellesley College                5
##  6 Stanford University                6 NA    Bowdoin College                  6
##  7 University of Chicago              6 NA    United States Naval A…           6
##  8 University of Pennsylva…           8 NA    Claremont McKenna Col…           8
##  9 California Institute of…           9 NA    Carleton College                 9
## 10 Duke University                    9 NA    Middlebury College               9
## # ℹ 11 more rows
## # ℹ abbreviated names: ¹​`Top national universities[13]`,
## #   ²​`Top liberal arts colleges[14]`
```
…
