Web scraping
…
# Use `.wikitable` tag to get the first table

```r
rankings <- read_html("https://en.wikipedia.org/wiki/College_and_university_rankings_in_the_United_States")

first_table <- rankings %>% 
  html_element(".wikitable") %>% 
  html_table()

first_table
```

```
## # A tibble: 21 × 5
##    `Top national universiti… `2022 rank` ``    `Top liberal arts co… `2022 rank`
##    <chr>                           <int> <lgl> <chr>                       <int>
##  1 Princeton University                1 NA    Williams College                1
##  2 Columbia University                 2 NA    Amherst College                 2
##  3 Harvard University                  2 NA    Swarthmore College              3
##  4 Massachusetts Institute …           2 NA    Pomona College                  4
##  5 Yale University                     5 NA    Wellesley College               5
##  6 Stanford University                 6 NA    Bowdoin College                 6
##  7 University of Chicago               6 NA    United States Naval …           6
##  8 University of Pennsylvan…           8 NA    Claremont McKenna Co…           8
##  9 California Institute of …           9 NA    Carleton College                9
## 10 Duke University                     9 NA    Middlebury College              9
## # … with 11 more rows
```
…
