Welcome to the tidyverse
…
---

# Printing a tibble

```r
starwars
```

```
*## # A tibble: 87 × 14
##    name     height  mass hair_color skin_color eye_color birth_year sex   gender
*##    <chr>     <int> <dbl> <chr>      <chr>      <chr>          <dbl> <chr> <chr> 
##  1 Luke Sk…    172    77 blond      fair       blue            19   male  mascu…
##  2 C-3PO       167    75 <NA>       gold       yellow         112   none  mascu…
##  3 R2-D2        96    32 <NA>       white, bl… red             33   none  mascu…
##  4 Darth V…    202   136 none       white      yellow          41.9 male  mascu…
##  5 Leia Or…    150    49 brown      light      brown           19   fema… femin…
##  6 Owen La…    178   120 brown, gr… light      blue            52   male  mascu…
##  7 Beru Wh…    165    75 brown      light      blue            47   fema… femin…
##  8 R5-D4        97    32 <NA>       white, red red             NA   none  mascu…
##  9 Biggs D…    183    84 black      light      brown           24   male  mascu…
## 10 Obi-Wan…    182    77 auburn, w… fair       blue-gray       57   male  mascu…
*## # ℹ 77 more rows
*## # ℹ 5 more variables: homeworld <chr>, species <chr>, films <list>,
…
Let's study these commands together using the `starwars` data frame that comes pre-packaged with dplyr

---

# Starwars

This is what the `starwars` dataset looks like:

```r
starwars
```

```
## # A tibble: 87 × 14
##    name     height  mass hair_color skin_color eye_color birth_year sex   gender
##    <chr>     <int> <dbl> <chr>      <chr>      <chr>          <dbl> <chr> <chr> 
##  1 Luke Sk…    172    77 blond      fair       blue            19   male  mascu…
##  2 C-3PO       167    75 <NA>       gold       yellow         112   none  mascu…
##  3 R2-D2        96    32 <NA>       white, bl… red             33   none  mascu…
##  4 Darth V…    202   136 none       white      yellow          41.9 male  mascu…
##  5 Leia Or…    150    49 brown      light      brown           19   fema… femin…
##  6 Owen La…    178   120 brown, gr… light      blue            52   male  mascu…
##  7 Beru Wh…    165    75 brown      light      blue            47   fema… femin…
##  8 R5-D4        97    32 <NA>       white, red red             NA   none  mascu…
##  9 Biggs D…    183    84 black      light      brown           24   male  mascu…
## 10 Obi-Wan…    182    77 auburn, w… fair       blue-gray       57   male  mascu…
## # ℹ 77 more rows
## # ℹ 5 more variables: homeworld <chr>, species <chr>, films <list>,
## #   vehicles <list>, starships <list>
```
---
name: select

# 1) dplyr::select

`select` allows us to select columns / variables:

.pull-left[

```r
starwars |> select(name)
```

```
*## # A tibble: 87 × 1
##    name              
##    <chr>             
##  1 Luke Skywalker    
##  2 C-3PO             
##  3 R2-D2             
##  4 Darth Vader       
##  5 Leia Organa       
##  6 Owen Lars         
##  7 Beru Whitesun Lars
##  8 R5-D4             
##  9 Biggs Darklighter 
## 10 Obi-Wan Kenobi    
## # ℹ 77 more rows
```
…
---

# 1) dplyr::select

You can get fancy: use commas to select multiple columns, deselect a column using "-", and select consecutive columns using "first:last"

```r
starwars |> 
  select(name:skin_color, species, -height)
```

```
## # A tibble: 87 × 5
##    name                mass hair_color    skin_color  species
##    <chr>              <dbl> <chr>         <chr>       <chr>  
##  1 Luke Skywalker        77 blond         fair        Human  
##  2 C-3PO                 75 <NA>          gold        Droid  
##  3 R2-D2                 32 <NA>          white, blue Droid  
##  4 Darth Vader          136 none          white       Human  
##  5 Leia Organa           49 brown         light       Human  
##  6 Owen Lars            120 brown, grey   light       Human  
##  7 Beru Whitesun Lars    75 brown         light       Human  
##  8 R5-D4                 32 <NA>          white, red  Droid  
##  9 Biggs Darklighter     84 black         light       Human  
## 10 Obi-Wan Kenobi        77 auburn, white fair        Human  
## # ℹ 77 more rows
```

---

# 1) dplyr::select

You can also rename your selected variables at the same time:

```r
starwars |>
  select(alias = name, crib = homeworld)
```

```
## # A tibble: 87 × 2
##    alias              crib    
##    <chr>              <chr>   
##  1 Luke Skywalker     Tatooine
##  2 C-3PO              Tatooine
##  3 R2-D2              Naboo   
##  4 Darth Vader        Tatooine
##  5 Leia Organa        Alderaan
##  6 Owen Lars          Tatooine
##  7 Beru Whitesun Lars Tatooine
##  8 R5-D4              Tatooine
##  9 Biggs Darklighter  Tatooine
## 10 Obi-Wan Kenobi     Stewjon 
## # ℹ 77 more rows
```

---

# 1) dplyr::select

If you just want to rename columns without subsetting them, use `rename`:

```r
starwars |>
  rename(alias = name, crib = homeworld)
```

```
## # A tibble: 87 × 14
##    alias    height  mass hair_color skin_color eye_color birth_year sex   gender
##    <chr>     <int> <dbl> <chr>      <chr>      <chr>          <dbl> <chr> <chr> 
##  1 Luke Sk…    172    77 blond      fair       blue            19   male  mascu…
##  2 C-3PO       167    75 <NA>       gold       yellow         112   none  mascu…
##  3 R2-D2        96    32 <NA>       white, bl… red             33   none  mascu…
##  4 Darth V…    202   136 none       white      yellow          41.9 male  mascu…
##  5 Leia Or…    150    49 brown      light      brown           19   fema… femin…
##  6 Owen La…    178   120 brown, gr… light      blue            52   male  mascu…
##  7 Beru Wh…    165    75 brown      light      blue            47   fema… femin…
##  8 R5-D4        97    32 <NA>       white, red red             NA   none  mascu…
##  9 Biggs D…    183    84 black      light      brown           24   male  mascu…
## 10 Obi-Wan…    182    77 auburn, w… fair       blue-gray       57   male  mascu…
## # ℹ 77 more rows
## # ℹ 5 more variables: crib <chr>, species <chr>, films <list>, vehicles <list>,
## #   starships <list>
```

---

# 1) dplyr::select

`select(contains(PATTERN))` provides a handy shortcut:

```r
starwars |> 
  select(name, contains("color"))
```

```
## # A tibble: 87 × 4
##    name               hair_color    skin_color  eye_color
##    <chr>              <chr>         <chr>       <chr>    
##  1 Luke Skywalker     blond         fair        blue     
##  2 C-3PO              <NA>          gold        yellow   
##  3 R2-D2              <NA>          white, blue red      
##  4 Darth Vader        none          white       yellow   
##  5 Leia Organa        brown         light       brown    
##  6 Owen Lars          brown, grey   light       blue     
##  7 Beru Whitesun Lars brown         light       blue     
##  8 R5-D4              <NA>          white, red  red      
##  9 Biggs Darklighter  black         light       brown    
## 10 Obi-Wan Kenobi     auburn, white fair        blue-gray
## # ℹ 77 more rows
```
…
---

# 2) dplyr::filter

How could you build on this to remove rows with missing data?

--

```r
starwars |> 
  filter(!is.na(height)) # use ! for negation
```

```
## # A tibble: 81 × 14
##    name     height  mass hair_color skin_color eye_color birth_year sex   gender
##    <chr>     <int> <dbl> <chr>      <chr>      <chr>          <dbl> <chr> <chr> 
##  1 Luke Sk…    172    77 blond      fair       blue            19   male  mascu…
##  2 C-3PO       167    75 <NA>       gold       yellow         112   none  mascu…
##  3 R2-D2        96    32 <NA>       white, bl… red             33   none  mascu…
##  4 Darth V…    202   136 none       white      yellow          41.9 male  mascu…
##  5 Leia Or…    150    49 brown      light      brown           19   fema… femin…
##  6 Owen La…    178   120 brown, gr… light      blue            52   male  mascu…
##  7 Beru Wh…    165    75 brown      light      blue            47   fema… femin…
##  8 R5-D4        97    32 <NA>       white, red red             NA   none  mascu…
##  9 Biggs D…    183    84 black      light      brown           24   male  mascu…
## 10 Obi-Wan…    182    77 auburn, w… fair       blue-gray       57   male  mascu…
## # ℹ 71 more rows
## # ℹ 5 more variables: homeworld <chr>, species <chr>, films <list>,
## #   vehicles <list>, starships <list>
```

---
name: arrange

# 3) dplyr::arrange

`arrange` sorts the data frame based on the variable(s) you supply:

```r
starwars |> 
  arrange(birth_year)
```

```
## # A tibble: 87 × 14
##    name     height  mass hair_color skin_color eye_color birth_year sex   gender
##    <chr>     <int> <dbl> <chr>      <chr>      <chr>          <dbl> <chr> <chr> 
##  1 Wicket …     88  20   brown      brown      brown            8   male  mascu…
##  2 IG-88       200 140   none       metal      red             15   none  mascu…
##  3 Luke Sk…    172  77   blond      fair       blue            19   male  mascu…
##  4 Leia Or…    150  49   brown      light      brown           19   fema… femin…
##  5 Wedge A…    170  77   brown      fair       hazel           21   male  mascu…
##  6 Plo Koon    188  80   none       orange     black           22   male  mascu…
##  7 Biggs D…    183  84   black      light      brown           24   male  mascu…
##  8 Han Solo    180  80   brown      fair       brown           29   male  mascu…
##  9 Lando C…    177  79   black      dark       brown           31   male  mascu…
## 10 Boba Fe…    183  78.2 black      fair       brown           31.5 male  mascu…
## # ℹ 77 more rows
## # ℹ 5 more variables: homeworld <chr>, species <chr>, films <list>,
## #   vehicles <list>, starships <list>
```

---

# 3) dplyr::arrange

We can also arrange items in descending order using `arrange(desc())`:

```r
starwars |> 
  arrange(desc(birth_year))
```

```
## # A tibble: 87 × 14
##    name     height  mass hair_color skin_color eye_color birth_year sex   gender
##    <chr>     <int> <dbl> <chr>      <chr>      <chr>          <dbl> <chr> <chr> 
##  1 Yoda         66    17 white      green      brown            896 male  mascu…
##  2 Jabba D…    175  1358 <NA>       green-tan… orange           600 herm… mascu…
##  3 Chewbac…    228   112 brown      unknown    blue             200 male  mascu…
##  4 C-3PO       167    75 <NA>       gold       yellow           112 none  mascu…
##  5 Dooku       193    80 white      fair       brown            102 male  mascu…
##  6 Qui-Gon…    193    89 brown      fair       blue              92 male  mascu…
##  7 Ki-Adi-…    198    82 white      pale       yellow            92 male  mascu…
##  8 Finis V…    170    NA blond      fair       blue              91 male  mascu…
##  9 Palpati…    170    75 grey       pale       yellow            82 male  mascu…
## 10 Cliegg …    183    NA brown      fair       blue              82 male  mascu…
## # ℹ 77 more rows
## # ℹ 5 more variables: homeworld <chr>, species <chr>, films <list>,
## #   vehicles <list>, starships <list>
```
…
---

# 4) dplyr::mutate

You can create new columns from scratch or by transforming existing columns:

```r
starwars |> 
  select(name, birth_year) |>
  mutate(dog_years = birth_year * 7)
```

```
## # A tibble: 87 × 3
##    name               birth_year dog_years
##    <chr>                   <dbl>     <dbl>
##  1 Luke Skywalker           19        133 
##  2 C-3PO                   112        784 
##  3 R2-D2                    33        231 
##  4 Darth Vader              41.9      293.
##  5 Leia Organa              19        133 
##  6 Owen Lars                52        364 
##  7 Beru Whitesun Lars       47        329 
##  8 R5-D4                    NA         NA 
##  9 Biggs Darklighter        24        168 
## 10 Obi-Wan Kenobi           57        399 
## # ℹ 77 more rows
```
---

# 4) dplyr::mutate

You can create new columns from scratch or by transforming existing columns:

```r
starwars |> 
  select(name, birth_year) |>
  mutate(dog_years = birth_year * 7) |>
  mutate(comment = str_glue("{name} is {dog_years} in dog years.")) # or could use paste()
```

```
## # A tibble: 87 × 4
##    name               birth_year dog_years comment                              
##    <chr>                   <dbl>     <dbl> <glue>                               
##  1 Luke Skywalker           19        133  Luke Skywalker is 133 in dog years.  
##  2 C-3PO                   112        784  C-3PO is 784 in dog years.           
##  3 R2-D2                    33        231  R2-D2 is 231 in dog years.           
##  4 Darth Vader              41.9      293. Darth Vader is 293.3 in dog years.   
##  5 Leia Organa              19        133  Leia Organa is 133 in dog years.     
##  6 Owen Lars                52        364  Owen Lars is 364 in dog years.       
##  7 Beru Whitesun Lars       47        329  Beru Whitesun Lars is 329 in dog yea…
##  8 R5-D4                    NA         NA  R5-D4 is NA in dog years.            
##  9 Biggs Darklighter        24        168  Biggs Darklighter is 168 in dog year…
## 10 Obi-Wan Kenobi           57        399  Obi-Wan Kenobi is 399 in dog years.  
## # ℹ 77 more rows
```
---

# 4) dplyr::mutate

`mutate` creates variables in order, so we can chain them together in a single call:

```r
starwars |> 
  select(name, birth_year) |>
  mutate(dog_years = birth_year * 7, # separate with a comma
         comment = str_glue("{name} is {dog_years} in dog years."))
```

```
## # A tibble: 87 × 4
##    name               birth_year dog_years comment                              
##    <chr>                   <dbl>     <dbl> <glue>                               
##  1 Luke Skywalker           19        133  Luke Skywalker is 133 in dog years.  
##  2 C-3PO                   112        784  C-3PO is 784 in dog years.           
##  3 R2-D2                    33        231  R2-D2 is 231 in dog years.           
##  4 Darth Vader              41.9      293. Darth Vader is 293.3 in dog years.   
##  5 Leia Organa              19        133  Leia Organa is 133 in dog years.     
##  6 Owen Lars                52        364  Owen Lars is 364 in dog years.       
##  7 Beru Whitesun Lars       47        329  Beru Whitesun Lars is 329 in dog yea…
##  8 R5-D4                    NA         NA  R5-D4 is NA in dog years.            
##  9 Biggs Darklighter        24        168  Biggs Darklighter is 168 in dog year…
## 10 Obi-Wan Kenobi           57        399  Obi-Wan Kenobi is 399 in dog years.  
## # ℹ 77 more rows
```
…
---

# Other dplyr goodies: count

`count` to get the number of observations:
.pull-left[

```r
starwars |> 
  count(species)
```

```
## # A tibble: 38 × 2
##    species       n
##    <chr>     <int>
##  1 Aleena        1
##  2 Besalisk      1
##  3 Cerean        1
##  4 Chagrian      1
##  5 Clawdite      1
##  6 Droid         6
##  7 Dug           1
##  8 Ewok          1
##  9 Geonosian     1
## 10 Gungan        3
## # ℹ 28 more rows
```
]

.pull-right[

```r
starwars |> 
  group_by(species) |> summarize(num = n())
```

```
## # A tibble: 38 × 2
##    species     num
##    <chr>     <int>
##  1 Aleena        1
##  2 Besalisk      1
##  3 Cerean        1
##  4 Chagrian      1
##  5 Clawdite      1
##  6 Droid         6
##  7 Dug           1
##  8 Ewok          1
##  9 Geonosian     1
## 10 Gungan        3
## # ℹ 28 more rows
```
]

---

# Other dplyr goodies: distinct

`distinct` to isolate unique observations:

```r
starwars |> distinct(species)
```

```
## # A tibble: 38 × 1
##    species       
##    <chr>         
##  1 Human         
##  2 Droid         
##  3 Wookiee       
##  4 Rodian        
##  5 Hutt          
##  6 <NA>          
##  7 Yoda's species
##  8 Trandoshan    
##  9 Mon Calamari  
## 10 Ewok          
## # ℹ 28 more rows
```
…
