Strings and regular expressions
…
---

# Reminder: dplyr::group_by

`summarize` is particularly useful in combination with `group_by`:

```r
semi_join(tidy_txhouse, tx_pop_city) |>   # for cities in tidy_txhouse and tx_pop_city
  filter(2010 <= year & year <= 2012) |>  # for years 2010-2012
* group_by(city) |>                       # for each city
* summarize(mean_price = mean(price))     # compute the mean price
```

```
## # A tibble: 34 × 2
##    city           mean_price
##    <chr>               <dbl>
##  1 Abilene           113614.
##  2 Amarillo          128192.
##  3 Arlington         128058.
##  4 Austin            193811.
##  5 Beaumont          128431.
##  6 Brownsville        96569.
##  7 Corpus Christi    137883.
##  8 Dallas            161706.
##  9 El Paso           135117.
## 10 Fort Worth        114217.
## # … with 24 more rows
```
---

# Groups are persistent (sort of)

.pull-left[

```r
semi_join(tidy_txhouse, tx_pop_city) |>
  filter(2010 <= year & year <= 2012) |>
  group_by(city) |> 
  print(n = 5)
```

```
## # A tibble: 102 × 4
*## # Groups:   city [34]
##   city      year sales   price
##   <chr>    <dbl> <dbl>   <dbl>
*## 1 Abilene   2010  1590 112000 
*## 2 Abilene   2011  1719 114492.
*## 3 Abilene   2012  2016 114350 
## 4 Amarillo  2010  2556 125117.
## 5 Amarillo  2011  2705 126658.
## # … with 97 more rows
```
…
--

.pull-right[

```r
semi_join(tidy_txhouse, tx_pop_city) |>
  filter(2010 <= year & year <= 2012) |>
  group_by(city) |> 
  summarize(mean_price = mean(price)) |> 
  print(n = 5)
```

```
## # A tibble: 34 × 2
##   city      mean_price
##   <chr>          <dbl>
*## 1 Abilene      113614.
## 2 Amarillo     128192.
## 3 Arlington    128058.
## 4 Austin       193811.
## 5 Beaumont     128431.
## # … with 29 more rows
```
…
By contrast `mutate()` does not unroll group variables unless you explicitly ask it to
]

.pull-right[

```r
semi_join(tidy_txhouse, tx_pop_city) |>
  filter(2010 <= year & year <= 2012) |>
  group_by(city) |> 
  mutate(mean_price = mean(price))
```

```
## # A tibble: 102 × 5
*## # Groups:   city [34]
##    city       year sales   price mean_price
##    <chr>     <dbl> <dbl>   <dbl>      <dbl>
*##  1 Abilene    2010  1590 112000     113614.
*##  2 Abilene    2011  1719 114492.    113614.
*##  3 Abilene    2012  2016 114350     113614.
##  4 Amarillo   2010  2556 125117.    128192.
##  5 Amarillo   2011  2705 126658.    128192.
##  6 Amarillo   2012  2933 132800     128192.
##  7 Arlington  2010  3883 129717.    128058.
##  8 Arlington  2011  3719 124267.    128058.
##  9 Arlington  2012  4248 130192.    128058.
## 10 Austin     2010 19872 189658.    193811.
## # … with 92 more rows
```
…
# Working with strings in R

---

# Strings are nothing new

.pull-left[

```r
nycflights13::flights |> 
  select(carrier, tailnum, origin, dest)
```

```
## # A tibble: 336,776 × 4
##    carrier tailnum origin dest 
*##    <chr>   <chr>   <chr>  <chr>
##  1 UA      N14228  EWR    IAH  
##  2 UA      N24211  LGA    IAH  
##  3 AA      N619AA  JFK    MIA  
##  4 B6      N804JB  JFK    BQN  
##  5 DL      N668DN  LGA    ATL  
##  6 UA      N39463  EWR    ORD  
##  7 B6      N516JB  EWR    FLL  
##  8 EV      N829AS  LGA    IAD  
##  9 B6      N593JB  JFK    MCO  
## 10 AA      N3ALAA  LGA    ORD  
## # … with 336,766 more rows
```
]

.pull-right[

```r
tx_pop_city |> 
  select(city)
```

```
## # A tibble: 1,217 × 1
##    city         
*##    <chr>        
##  1 Abbott       
##  2 Abernathy    
##  3 Abilene      
##  4 Ackerly      
##  5 Addison      
##  6 Adrian       
##  7 Agua Dulce   
##  8 Alamo        
##  9 Alamo Heights
## 10 Alba         
## # … with 1,207 more rows
```
…
See `vignette("stringr")` for more

---

# We'll use data from The Office

The `schrute` package contains transcripts of all episodes of [The Office](https://www.imdb.com/title/tt0386676/) (US)

```r
library(schrute)
theoffice # this is an object from the schrute package
```

```
## # A tibble: 55,130 × 12
##    index season episode episode_n…¹ direc…² writer chara…³ text  text_…⁴ imdb_…⁵
##    <int>  <int>   <int> <chr>       <chr>   <chr>  <chr>   <chr> <chr>     <dbl>
##  1     1      1       1 Pilot       Ken Kw… Ricky… Michael All … All ri…     7.6
##  2     2      1       1 Pilot       Ken Kw… Ricky… Jim     Oh, … Oh, I …     7.6
##  3     3      1       1 Pilot       Ken Kw… Ricky… Michael So y… So you…     7.6
##  4     4      1       1 Pilot       Ken Kw… Ricky… Jim     Actu… Actual…     7.6
##  5     5      1       1 Pilot       Ken Kw… Ricky… Michael All … All ri…     7.6
##  6     6      1       1 Pilot       Ken Kw… Ricky… Michael Yes,… [on th…     7.6
##  7     7      1       1 Pilot       Ken Kw… Ricky… Michael I've… I've, …     7.6
##  8     8      1       1 Pilot       Ken Kw… Ricky… Pam     Well… Well. …     7.6
##  9     9      1       1 Pilot       Ken Kw… Ricky… Michael If y… If you…     7.6
## 10    10      1       1 Pilot       Ken Kw… Ricky… Pam     What? What?       7.6
## # … with 55,120 more rows, 2 more variables: total_votes <int>, air_date <chr>,
## #   and abbreviated variable names ¹​episode_name, ²​director, ³​character,
## #   ⁴​text_w_direction, ⁵​imdb_rating
```
…
# 4) stringr::str_detect

`str_detect` is a powerful way to `filter` a data frame

--

```r
theoffice |> select(season, episode, character, text) |> 
* filter(str_detect(text,    # where to match a pattern
*                   "sale")) # what pattern to match
```

```
## # A tibble: 370 × 4
##    season episode character text                                                
##     <int>   <int> <chr>     <chr>                                               
##  1      1       2 Jim       This is my biggest sale of the year. They love me o…
##  2      1       2 Jim       Mr. Decker, we didn't lose your sale today, did we?…
##  3      1       3 Jim       That is a great offer. Thank you. I really think I …
##  4      1       3 Jan       From sales?                                         
##  5      1       4 Michael   Look, look, look. I talked to corporate, about prot…
##  6      1       5 Michael   All right, time, time out. Come on, sales, over her…
##  7      1       6 Jan       Alan and I have created an incentive program to inc…
##  8      1       6 Jan       We've created an incentive program to increase sale…
##  9      1       6 Jim       Plus you have so much more to talk to this girl abo…
## 10      1       6 Stanley   I thought that was the incentive prize for the top …
## # … with 360 more rows
```

---

# 4) stringr::str_detect

Literal pattern matches with `str_detect` are case-sensitive

```r
theoffice |> select(season, episode, character, text) |> 
  filter(str_detect(text, 
*                   "Sale")) # sale and Sale produce different output
```

```
## # A tibble: 28 × 4
##    season episode character          text                                       
##     <int>   <int> <chr>              <chr>                                      
##  1      2      11 Michael            No, no. Salesmen and profit centers.       
##  2      2      14 Michael            Old fashioned raid. Sales on Accounting. Y…
##  3      2      14 Michael and Dwight Ahhhh! Whoo hoo! Come on, come on, come on…
##  4      2      14 Michael            Oh, and I'm not? Why would you say that? B…
##  5      2      17 Jim                Dwight was the top salesman of the year at…
##  6      2      17 Michael            Speaker at the Sales Convention. Been ther…
##  7      2      17 Dwight             Saleswoman has a v*g1n*.                   
##  8      2      17 Speaker            Next, I'd like to introduce the Dunder Mif…
##  9      2      17 Dwight             Salesman of Northeastern Pennsylvania, I a…
## 10      3       5 Angela             Sales take a long time.                    
## # … with 18 more rows
```

---

# 4) stringr::str_detect

You could use multiple calls to `str_detect`, or pass multiple arguments:

```r
theoffice |> select(season, episode, character, text) |> 
  filter(str_detect(text, 
*                   "sale|Sale")) # look for sale OR Sale
```

```
## # A tibble: 392 × 4
##    season episode character text                                                
##     <int>   <int> <chr>     <chr>                                               
##  1      1       2 Jim       This is my biggest sale of the year. They love me o…
##  2      1       2 Jim       Mr. Decker, we didn't lose your sale today, did we?…
*##  3      1       3 Jim       That is a great offer. Thank you. I really think I …
##  4      1       3 Jan       From sales?                                         
##  5      1       4 Michael   Look, look, look. I talked to corporate, about prot…
##  6      1       5 Michael   All right, time, time out. Come on, sales, over her…
*##  7      1       6 Jan       Alan and I have created an incentive program to inc…
##  8      1       6 Jan       We've created an incentive program to increase sale…
##  9      1       6 Jim       Plus you have so much more to talk to this girl abo…
## 10      1       6 Stanley   I thought that was the incentive prize for the top …
## # … with 382 more rows
```

---

# 4) stringr::str_detect

You could consolidate this: regex parentheses are like in math

```r
theoffice |> select(season, episode, character, text) |> 
  filter(str_detect(text, 
*                   "(s|S)ale")) # look for sale OR Sale
```

```
## # A tibble: 392 × 4
##    season episode character text                                                
##     <int>   <int> <chr>     <chr>                                               
##  1      1       2 Jim       This is my biggest sale of the year. They love me o…
##  2      1       2 Jim       Mr. Decker, we didn't lose your sale today, did we?…
##  3      1       3 Jim       That is a great offer. Thank you. I really think I …
##  4      1       3 Jan       From sales?                                         
##  5      1       4 Michael   Look, look, look. I talked to corporate, about prot…
##  6      1       5 Michael   All right, time, time out. Come on, sales, over her…
##  7      1       6 Jan       Alan and I have created an incentive program to inc…
##  8      1       6 Jan       We've created an incentive program to increase sale…
##  9      1       6 Jim       Plus you have so much more to talk to this girl abo…
## 10      1       6 Stanley   I thought that was the incentive prize for the top …
## # … with 382 more rows
```

---

# 4) stringr::str_detect

Or use `regex()` to ignore all cases and control other pattern matching details

```r
theoffice |> select(season, episode, character, text) |> 
  filter(str_detect(text, 
*                   regex("Sale", ignore_case = TRUE))) # ignore case
```

```
## # A tibble: 393 × 4
##    season episode character text                                                
##     <int>   <int> <chr>     <chr>                                               
##  1      1       2 Jim       This is my biggest sale of the year. They love me o…
##  2      1       2 Jim       Mr. Decker, we didn't lose your sale today, did we?…
##  3      1       3 Jim       That is a great offer. Thank you. I really think I …
##  4      1       3 Jan       From sales?                                         
##  5      1       4 Michael   Look, look, look. I talked to corporate, about prot…
##  6      1       5 Michael   All right, time, time out. Come on, sales, over her…
##  7      1       6 Jan       Alan and I have created an incentive program to inc…
##  8      1       6 Jan       We've created an incentive program to increase sale…
##  9      1       6 Jim       Plus you have so much more to talk to this girl abo…
## 10      1       6 Stanley   I thought that was the incentive prize for the top …
## # … with 383 more rows
```
…
# 4) stringr::str_detect

`str_detect` can be combined with familiar functions to summarize data

--

```r
theoffice |> 
  filter(str_detect(text, regex("Sale", ignore_case = TRUE))) |> 
* count(character, sort = TRUE)
```

```
## # A tibble: 46 × 2
##    character     n
##    <chr>     <int>
##  1 Michael      91
##  2 Dwight       81
##  3 Jim          51
##  4 Andy         31
##  5 Pam          26
##  6 Ryan         10
##  7 Clark         8
##  8 Gabe          7
##  9 David         6
## 10 Angela        5
## # … with 36 more rows
```
…
