Distributions
…
#### Three parts:
1. AAPL
2. The S&P 500
3. Our Class Portfolio

---

# Mini Project 1: data

```r
sp500_companies
```

```
## # A tibble: 504 × 7
##    symbol company           identifier sedol  weight sector       local_currency
##    <chr>  <chr>             <chr>      <chr>   <dbl> <chr>        <chr>         
##  1 AAPL   Apple Inc.        03783310   20462… 0.0701 Information… USD           
##  2 MSFT   Microsoft Corpor… 59491810   25881… 0.0601 Information… USD           
##  3 AMZN   Amazon.com Inc.   02313510   20000… 0.0349 Consumer Di… USD           
##  4 GOOGL  Alphabet Inc. Cl… 02079K30   BYVY8… 0.0218 Communicati… USD           
##  5 GOOG   Alphabet Inc. Cl… 02079K10   BYY88… 0.0203 Communicati… USD           
##  6 TSLA   Tesla Inc         88160R10   B616C… 0.0185 Consumer Di… USD           
##  7 BRK-B  Berkshire Hathaw… 08467070   20733… 0.0162 Financials   USD           
##  8 NVDA   NVIDIA Corporati… 67066G10   23795… 0.0160 Information… USD           
##  9 FB     Meta Platforms I… 30303M10   B7TL8… 0.0130 Communicati… USD           
## 10 UNH    UnitedHealth Gro… 91324P10   29177… 0.0124 Health Care  USD           
## # … with 494 more rows
```

---

# Mini Project 1: data

```r
sp500_prices
```

```
## # A tibble: 628,663 × 8
##    symbol date        open  high   low close    volume adjusted
##    <chr>  <date>     <dbl> <dbl> <dbl> <dbl>     <dbl>    <dbl>
##  1 AAPL   2017-01-03  29.0  29.1  28.7  29.0 115127600     27.3
##  2 AAPL   2017-01-04  29.0  29.1  28.9  29.0  84472400     27.3
##  3 AAPL   2017-01-05  29.0  29.2  29.0  29.2  88774400     27.4
##  4 AAPL   2017-01-06  29.2  29.5  29.1  29.5 127007600     27.7
##  5 AAPL   2017-01-09  29.5  29.9  29.5  29.7 134247600     28.0
##  6 AAPL   2017-01-10  29.7  29.8  29.6  29.8  97848400     28.0
##  7 AAPL   2017-01-11  29.7  30.0  29.6  29.9 110354400     28.1
##  8 AAPL   2017-01-12  29.7  29.8  29.6  29.8 108344800     28.0
##  9 AAPL   2017-01-13  29.8  29.9  29.7  29.8 104447600     28.0
## 10 AAPL   2017-01-17  29.6  30.1  29.6  30   137759200     28.2
## # … with 628,653 more rows
```

---

# Mini Project 1: data

```r
our_companies
```

```
## # A tibble: 22 × 2
##    company                             n
##    <chr>                           <dbl>
##  1 Allbirds Inc                        1
##  2 Alphabet Inc. Class A               1
##  3 Anheuser Busch Inbev SA             1
##  4 Apple Inc.                         11
##  5 Berkshire Hathaway Inc. Class B     1
##  6 Bumble Inc                          1
##  7 Capri Holdings Ltd                  1
##  8 Costco Wholesale Corporation        1
##  9 Electronic Arts Inc.                1
## 10 Levi Strauss & Co.                  1
## # … with 12 more rows
```
…
