Distributions
…
---

# Group project: data

```r
sp500_companies
```

```
## # A tibble: 504 × 7
##    symbol company                         identifier sedol weight sector local…¹
##    <chr>  <chr>                           <chr>      <chr>  <dbl> <chr>  <chr>  
##  1 AAPL   Apple Inc.                      03783310   2046… 0.0701 Infor… USD    
##  2 MSFT   Microsoft Corporation           59491810   2588… 0.0601 Infor… USD    
##  3 AMZN   Amazon.com Inc.                 02313510   2000… 0.0349 Consu… USD    
##  4 GOOGL  Alphabet Inc. Class A           02079K30   BYVY… 0.0218 Commu… USD    
##  5 GOOG   Alphabet Inc. Class C           02079K10   BYY8… 0.0203 Commu… USD    
##  6 TSLA   Tesla Inc                       88160R10   B616… 0.0185 Consu… USD    
##  7 BRK-B  Berkshire Hathaway Inc. Class B 08467070   2073… 0.0162 Finan… USD    
##  8 NVDA   NVIDIA Corporation              67066G10   2379… 0.0160 Infor… USD    
##  9 FB     Meta Platforms Inc. Class A     30303M10   B7TL… 0.0130 Commu… USD    
## 10 UNH    UnitedHealth Group Incorporated 91324P10   2917… 0.0124 Healt… USD    
## # … with 494 more rows, and abbreviated variable name ¹​local_currency
```

---

# Group project: data

```r
sp500_prices
```

```
## # A tibble: 628,663 × 8
##    symbol date        open  high   low close    volume adjusted
##    <chr>  <date>     <dbl> <dbl> <dbl> <dbl>     <dbl>    <dbl>
##  1 AAPL   2017-01-03  29.0  29.1  28.7  29.0 115127600     27.3
##  2 AAPL   2017-01-04  29.0  29.1  28.9  29.0  84472400     27.3
##  3 AAPL   2017-01-05  29.0  29.2  29.0  29.2  88774400     27.4
##  4 AAPL   2017-01-06  29.2  29.5  29.1  29.5 127007600     27.7
##  5 AAPL   2017-01-09  29.5  29.9  29.5  29.7 134247600     28.0
##  6 AAPL   2017-01-10  29.7  29.8  29.6  29.8  97848400     28.0
##  7 AAPL   2017-01-11  29.7  30.0  29.6  29.9 110354400     28.1
##  8 AAPL   2017-01-12  29.7  29.8  29.6  29.8 108344800     28.0
##  9 AAPL   2017-01-13  29.8  29.9  29.7  29.8 104447600     28.0
## 10 AAPL   2017-01-17  29.6  30.1  29.6  30   137759200     28.2
## # … with 628,653 more rows
```

---

# Group project: data

```r
our_companies
```

```
## # A tibble: 25 × 2
##    name                                 n
##    <chr>                            <dbl>
##  1 Alphabet Inc. Class A                2
##  2 Amazon.com Inc.                      1
##  3 Apple Inc.                           8
##  4 Blackstone Inc.                      1
##  5 Boyd Gaming Corp                     1
##  6 Catalyst Pharmaceuticals, Inc.       1
##  7 China International Capital Corp     1
##  8 Chipotle Mexican Grill Inc.          1
##  9 Costco Wholesale Corporation         1
## 10 Deere & Company                      1
## # … with 15 more rows
```
…
