Space | R for Business Analytics
…
We have a bunch of columns here, but we care about two in particular: life expectancy, and the ISO3 code. This three-letter code is a standard system for identifying countries (see the full list here), and that column will let us combine this World Bank data with the global shapefile, which also has a column for the ISO3 code.

(We also have columns for the latitude and longitude for each capital, so we could theoretically convert those to a geometry column with st_as_sf() and plot world capitals, which would be neat, but we won’t do that now.)

Let’s clean up the WDI data and shrink it down substantially:

wdi_clean_small <- wdi_raw %>% 
  select(life_expectancy = SP.DYN.LE00.IN, iso3c)
wdi_clean_small

## # A tibble: 264 x 2
##    life_expectancy iso3c
##              <dbl> <chr>
##  1            71.2 ARB  
##  2            71.9 WLD  
##  3            74.5 EAP  
##  4            72.6 ECA  
##  5            68.6 SAS  
##  6            NA   AND  
##  7            77.3 ARE  
##  8            63.4 AFG  
##  9            76.5 ATG  
## 10            78.0 ALB  
## # … with 254 more rows
…
